"nidn","nama","status dosen","hak akses","password";
"88323048901","Operator Lemlitbang","aktif","operator","12345";
"2015016101","ABBAS GHOZALI","aktif","dosen","12345";
"9903005455","ABDORRAKHMAN GINTING","aktif","dosen","12345";
"9903021528","ABDULLAH ANTARIA","aktif","dosen","12345";
"0027025301","Prof.Dr. ABDUL MADJID LATIEF M.Pd, MM.","aktif","dosen","12345";
"0013045204","ABDUL NASIR HARTONO","aktif","dosen","12345";
"0310036104","ABDUL RAHMAN A GHANI","aktif","dosen","12345";
"0307108802","ABDUL RAHMAN JUPRI M.Pd","aktif","dosen","12345";
"9903008714","ABDUL SALAM NASUTION","aktif","dosen","12345";
"0013045808","Dr. ACEP KUSDIWELIRAWAN M.M.","aktif","dosen","12345";
"0016084104","ACHMAD HP","aktif","dosen","12345";
"0019066301","Drs. ADE HIKMAT M.Pd","aktif","dosen","12345";
"0329017702","ADIA PUTRA WIRMAN S.Si, M.Si","aktif","dosen","12345";
"0321067803","ADI RIYADHI","aktif","dosen","12345";
"0325117707","ADITYO ARI WIBOWO S.E.","aktif","dosen","12345";
"9903020457","ADNA BOKIM","aktif","dosen","12345";
"0320055902","AFNI RASYID","aktif","dosen","12345";
"9903008198","AF WIBISONO","aktif","dosen","12345";
"0302036804","AGUNG","aktif","dosen","12345";
"0301046606","AGUNG HARYANTO M.E","aktif","dosen","12345";
"0319087101","AGUS FIKRI ST., MM.","aktif","dosen","12345";
"0323017002","Ir AHMAD DIPONEGORO","aktif","dosen","12345";
"0307077101","AHMAD FARIDI M.KM.","aktif","dosen","12345";
"0324048305","AHMAD FIHRI","aktif","dosen","12345";
"0326058102","AHMADIH ROJALIH JAWAB Lc., MA., LLM., Ph.D.","aktif","dosen","12345";
"0306106604","AHMAD SUHAERI","aktif","dosen","12345";
"0305087602","AI FATIMAH NUR FUAD","aktif","dosen","12345";
"0315089002","AIRUL AZWAN PARAPAT","aktif","dosen","12345";
"0020026201","Dra AISYAH RAMADHANI M.Psi","aktif","dosen","12345";
"0317097901","AKBAR NADJAR HENDRA SS., M.Pd.","aktif","dosen","12345";
"0301115902","Drs AKHMAD M.M.","aktif","dosen","12345";
"0325066902","Dr AKHMAD HAQIQI MA MUN S.Pd, M.Pd","aktif","dosen","12345";
"0313088802","AL ASYARY","aktif","dosen","12345";
"0328016703","ALFIAN","aktif","dosen","12345";
"0309087101","ALIB BIRWIN SKM., M.Epid.","aktif","dosen","12345";
"0017044501","ALIYAH HAMKA","aktif","dosen","12345";
"0330067902","ALMAWATI SITUMORANG S.Si, Apt","aktif","dosen","12345";
"0308097707","AMELIA VINAYASTRI M.Pd, S.Psi","aktif","dosen","12345";
"0902077001","AMILIA ZAINITA S.E., M.M.","aktif","dosen","12345";
"0302088101","AMIRUDIN M.Pd","aktif","dosen","12345";
"9903007378","AMSEL RUSTAM","aktif","dosen","12345";
"0010043802","ANAH SUHAENAH SUPARNO","aktif","dosen","12345";
"0325098204","ANA NATALIA","aktif","dosen","12345";
"0305057101","ANANG ROHWIYONO","aktif","dosen","12345";
"0016115203","ANDI SUBRI SH., MM.","aktif","dosen","12345";
"0317088106","ANDRI HUTARI","aktif","dosen","12345";
"0418024401","Drs ANEN TUMANGGUNG","aktif","dosen","12345";
"0322088401","ANFA NEFISA","aktif","dosen","12345";
"0025115301","Dr. ANIK TRI SUWARNI MM.","aktif","dosen","12345";
"0302048504","ANI PAHRIYANI M.Sc.","aktif","dosen","12345";
"0316018801","ANISA AMALIA","aktif","dosen","12345";
"0301048102","ANISIA KUMALA MASYHADI Lc., M.Psi.","aktif","dosen","12345";
"0324048601","ANITA DEWI EKAWATI","aktif","dosen","12345";
"0305023801","ANNE RUFAIDAH K","aktif","dosen","12345";
"0301063401","ANWAR ARIF","aktif","dosen","12345";
"0307048107","APRINALISTRIA M.Pd","aktif","dosen","12345";
"9903020054","ARIEF HERU KUNCORO","aktif","dosen","12345";
"0328057608","ARIF HAMZAH M.A","aktif","dosen","12345";
"0313127002","ARIF SETYAWAN","aktif","dosen","12345";
"0328017603","ARI WIDAYANTI S.Si.,Apt.,M.Farm.","aktif","dosen","12345";
"0328056901","ARRY AVORIZANO S.Kom., M.Kom.","aktif","dosen","12345";
"0315096202","ARSYAD","aktif","dosen","12345";
"0012036201","ASNI M.Pd.","aktif","dosen","12345";
"0303115501","Drs A SOBANDI","aktif","dosen","12345";
"0331017304","ATIQAH MEUTIA HILDA S.Kom., M.Kom.","aktif","dosen","12345";
"0305019101","AYU FARADILLAH","aktif","dosen","12345";
"0311058402","AYU TSURAYYA","aktif","dosen","12345";
"0302065404","BAHRUL HASIBUAN","aktif","dosen","12345";
"0408115102","BAHRUL KIROM","aktif","dosen","12345";
"0329104303","BAKTIZAR BM","aktif","dosen","12345";
"0320056202","Drs. BAMBANG DWI HARTONO M.Si.","aktif","dosen","12345";
"0315116102","Drs BAMBANG SUMARYANTO M.Si","aktif","dosen","12345";
"0323036501","BAMBANG TUTUKO SE., Ak., M.Si.","aktif","dosen","12345";
"0012015004","Dr BASUKI BS MM, M.Pd","aktif","dosen","12345";
"0308128801","() BENNY HENDRIANA M. Pd","aktif","dosen","12345";
"0325096803","Dra BETTI NURAINI","aktif","dosen","12345";
"0328116806","BETY SEMARA LAKHSMI M.KM","aktif","dosen","12345";
"0328078301","BITA DWI RAHMANI S.Pd, M.Pd","aktif","dosen","12345";
"0004036601","Drs BUDHI AKBAR M.Si","aktif","dosen","12345";
"0329047903","BUDIANDRU","aktif","dosen","12345";
"0023105001","Drs. BUDI ARMAN Apt., M.Kes","aktif","dosen","12345";
"0317017504","BUDI JOHAN","aktif","dosen","12345";
"0416057001","BUDI PERMANA M.M.","aktif","dosen","12345";
"0302026503","Drs BUNYAMIN M.Pd. I","aktif","dosen","12345";
"0329016002","BURHAYANI M.Pd.","aktif","dosen","12345";
"0325026104","BUSRO","aktif","dosen","12345";
"0312065603","CHANDRAWATY M.Pd","aktif","dosen","12345";
"0024094603","CH SUPRAPTO","aktif","dosen","12345";
"0315095502","Dr. CONNIE CHAIRUNNISA MM.","aktif","dosen","12345";
"0511028501","DANIEK VIVIANDHARI","aktif","dosen","12345";
"0327075602","Drs. DANIEL FERNANDEZ M.Si.","aktif","dosen","12345";
"0301126901","Dr DAN MUGISIDI","aktif","dosen","12345";
"0320049002","DEBBY ENDAYANI SAFITRI S.Gz, M.KM","aktif","dosen","12345";
"0016066513","DRS DEDE HASANUDIN M.HUM","aktif","dosen","12345";
"0311087002","DELVIS AGUSMAN ST., M.Sc","aktif","dosen","12345";
"0317018503","DEPI PUJIYANTI","aktif","dosen","12345";
"0310056502","DESAK MADE DARMAWATI S.Pd., MM.","aktif","dosen","12345";
"0317126903","DESVIAN BANDARSYAH M.Pd.","aktif","dosen","12345";
"0303028702","DEVI ANUGRAH S.Pd, M.Pd","aktif","dosen","12345";
"0316018004","DEWI PUDJI RAHAYU S.E.","aktif","dosen","12345";
"0313127803","DEWI TRIHANDAYANI S.Psi, M.Si","aktif","dosen","12345";
"0928028201","DIAN KHOLIKA","aktif","dosen","12345";
"0317098101","DIAN PRASANTI","aktif","dosen","12345";
"0326028802","DIKI RUKMANA","aktif","dosen","12345";
"0325108403","DINI WAHDIYATI","aktif","dosen","12345";
"0323027401","DWI ASTUTI CAHYASIWI ST., MT.","aktif","dosen","12345";
"0308108402","DWI DASALINDA M.Pd","aktif","dosen","12345";
"0225036002","Dr DWI PRIYONO","aktif","dosen","12345";
"0305058203","DWITIYANTI S.Si, Apt","aktif","dosen","12345";
"0304128402","EDI SUPRIADI S.Pd.","aktif","dosen","12345";
"0308014302","EFFEK ALAMSYAH","aktif","dosen","12345";
"0319104904","EFLY RASYIDIN","aktif","dosen","12345";
"0315038401","EKA HERIYANI M.Pd., Kons","aktif","dosen","12345";
"0324088801","EKA KARTIKAWATI M.Pd","aktif","dosen","12345";
"0011077701","EKO DIGDOYO S.Pd., M.Hum.","aktif","dosen","12345";
"0317117802","ELFIA SISKA YASA PUTRI M.Si","aktif","dosen","12345";
"0413076905","ELIN DRIANA","aktif","dosen","12345";
"0322098405","ELLY WARDANI S.Si., Apt., M.Farm.","aktif","dosen","12345";
"0309017001","EMA DEWANTI S.Si, M.Si","aktif","dosen","12345";
"0330097402","EMILIA ROZA ST., M.Pd.","aktif","dosen","12345";
"0030116301","Dr. EMMA RACHMAWATI M.Kes.","aktif","dosen","12345";
"9903006667","ENDANG ABUTARYA","aktif","dosen","12345";
"0329076101","ENDANG LISTIOWATY S.Ag, M.Pd","aktif","dosen","12345";
"0322077101","ENDY SJAIFUL ALIM ST.,MT.","aktif","dosen","12345";
"0303055905","Drs. ENGKUS KUSNADI M.Pd.","aktif","dosen","12345";
"0316025502","ENONG MUIZ SE, M.Si","aktif","dosen","12345";
"0302026504","ERIZAL M.Kom.","aktif","dosen","12345";
"9903006271","ERNA ROZALIA ABDURRIVAI","aktif","dosen","12345";
"0314035203","ERNA WIDODO","aktif","dosen","12345";
"0322057201","Dr ERVIN AZHAR S.Si., M.Pd.","aktif","dosen","12345";
"0321018303","ERWIN","aktif","dosen","12345";
"0305078702","ESTI AMBAR NUGRAHENI","aktif","dosen","12345";
"0314098403","ESTU SINDUNINGRUM","aktif","dosen","12345";
"0324116403","ETI ROCHAETI","aktif","dosen","12345";
"0330077002","EVINDIYAH PRITA DEWI MARS","aktif","dosen","12345";
"0305086302","FADIARMAN","aktif","dosen","12345";
"0322016606","FADJAR HERIANTO","aktif","dosen","12345";
"0311048101","FAHJAR PRISISKA S.Si.,Apt.,M.Farm.","aktif","dosen","12345";
"0322058006","FAHMI SALIM","aktif","dosen","12345";
"0330088201","FAIZAL RIDWAN ZAMZANY S.E., M.M.","aktif","dosen","12345";
"0319127801","FANINA ADJI","aktif","dosen","12345";
"0316027201","FAOZAN S.Ag","aktif","dosen","12345";
"0327097601","FARIDA HARIYATI M.I.K","aktif","dosen","12345";
"0321128803","FARIDLATUL HASANAH M.Farm, S.Farm","aktif","dosen","12345";
"0305067703","FARIKHH","aktif","dosen","12345";
"0327026504","Dra. FATIMAH NISMA M.Si.","aktif","dosen","12345";
"0320117002","FATMA NOFRIZA S.Pd., M.Si.","aktif","dosen","12345";
"0326027602","FERAWATI","aktif","dosen","12345";
"0323097701","FETRIMEN M.Pd","aktif","dosen","12345";
"9903015622","FISKAWATI","aktif","dosen","12345";
"0307057401","FITH KHAIRA NURSAL S.Si., Apt., M.Si.","aktif","dosen","12345";
"0304076206","Dra. FITNIWILIS M.Pd","aktif","dosen","12345";
"0321098901","FITRI ALYANI M.Si","aktif","dosen","12345";
"0027026401","FITRIANI","aktif","dosen","12345";
"2024027001","FITRI LIZA","aktif","dosen","12345";
"0302026502","FITRISIA SE., Ak., M.Si.","aktif","dosen","12345";
"0318068504","FITRI YUNIARTI S.Si, M.Si","aktif","dosen","12345";
"0331058405","GILANG KUMARI PUTRA","aktif","dosen","12345";
"0319057402","GUFRON AMIRULLAH M.Pd","aktif","dosen","12345";
"0320076203","Dr. Drs GUNAWAN SURYO PUTRO","aktif","dosen","12345";
"0330087503","GUSNIARTI S.Ag","aktif","dosen","12345";
"0325067201","HADI SUNARYO S.Si., M.Si., Apt","aktif","dosen","12345";
"0308063701","HADJID HARNAWIDAGDA","aktif","dosen","12345";
"0027026701","Dr.Ir HAMID ALJUFRI MM. M.Kom","aktif","dosen","12345";
"0302047104","HAMZAH PUADI ILYAS","aktif","dosen","12345";
"0326098603","HANIFAH RAHMI M.Biomed.","aktif","dosen","12345";
"0319047402","HARI NAREDI","aktif","dosen","12345";
"0024036108","Ir HARI SETIADI","aktif","dosen","12345";
"0311097705","HARIYANTI","aktif","dosen","12345";
"0315034402","HARRY B HARYONO","aktif","dosen","12345";
"0303097006","HARRY RAMZA ST., MT.","aktif","dosen","12345";
"0023055901","Drs. HARTANA","aktif","dosen","12345";
"0310065102","HARTONO","aktif","dosen","12345";
"9903017577","HARYATI","aktif","dosen","12345";
"0312017104","HASIM RUMAWAN SE., MM.","aktif","dosen","12345";
"0317046903","HAYATI M.Farm","aktif","dosen","12345";
"0311088901","HELLA JUSRA S.Pd, M.Pd","aktif","dosen","12345";
"0026054801","HELMI RANDJANUN","aktif","dosen","12345";
"0306057401","HENI ANI NURAENI","aktif","dosen","12345";
"0304077701","HENI NOVITASARI M.Pd.","aktif","dosen","12345";
"0324058303","Dr HERMAWAN SAPUTRA","aktif","dosen","12345";
"0305108003","HERRI MULYONO M.Pd","aktif","dosen","12345";
"0326036802","HERWIN KURNIAWAN S.E., M.M.","aktif","dosen","12345";
"0326057204","HIDAYATI","aktif","dosen","12345";
"0311026403","Dr. HILAL RAMADAN","aktif","dosen","12345";
"9903012584","HILDA","aktif","dosen","12345";
"0318027403","HILDA SMI S.E.","aktif","dosen","12345";
"0308048602","HILMAN FARUQ","aktif","dosen","12345";
"9903017589","HUSNAN NURJUMAN","aktif","dosen","12345";
"0302069002","HUSNIN NAHRY YARZA","aktif","dosen","12345";
"0309015703","IHSANA EL KHULUQO M.Pd","aktif","dosen","12345";
"0307098401","IKA YATRI S.Pd., M.Pd.","aktif","dosen","12345";
"0320047702","Dr IMAM SAFII","aktif","dosen","12345";
"0314086804","Ir IMAS RATNA ERMAWATI M.Pd","aktif","dosen","12345";
"0322107402","INDAH KUSUMANINGRUM","aktif","dosen","12345";
"0329088803","INDAH RAHMAYANTI M.Pd","aktif","dosen","12345";
"0315076801","DRS INDING GUSMAYADI M.Si., APT.","aktif","dosen","12345";
"0317087102","IPIK MUHAMMAD FIKRI SKM., M.Kes.","aktif","dosen","12345";
"0006065618","Drs IRDAM AHMAD M.Stat","aktif","dosen","12345";
"0303098201","IRFAN","aktif","dosen","12345";
"0311126901","IRWAN","aktif","dosen","12345";
"0316078501","ISHAQ NURIADIN M.Pd.","aktif","dosen","12345";
"0016063501","Prof.Drs.Dr ISMAUN M.Pd.","aktif","dosen","12345";
"0313108601","ISNAINI HANDAYANI S.Pd, M.Pd","aktif","dosen","12345";
"0329117302","IWAN WAHYUDIN","aktif","dosen","12345";
"0330067907","IZZA ROHMAN S.Th.I., MA.","aktif","dosen","12345";
"0309048602","IZZA SURAYA M.Epid.","aktif","dosen","12345";
"0308056303","Drs JAMIL M.M.","aktif","dosen","12345";
"0308066501","JON WINDU","aktif","dosen","12345";
"0315077406","JULIE ROSTINA","aktif","dosen","12345";
"0306087401","JUMARDI S.Pd, M.Pd","aktif","dosen","12345";
"0318027002","KASRIMAN","aktif","dosen","12345";
"0304075902","Drs KHAIRIL IBRAHIM M.Pd","aktif","dosen","12345";
"0308098802","KHAVISA PRANATA M.Pd","aktif","dosen","12345";
"0323048901","KHOERUL UMAM S.Pd, M.Pd","aktif","dosen","12345";
"0306026602","KOMARA S.E., M.M.","aktif","dosen","12345";
"0324067802","KORIYATI S.Si., Apt., M.Farm.","aktif","dosen","12345";
"0318048203","KOWIYAH M.Pd.","aktif","dosen","12345";
"0321088001","KRIANA EFENDI S.Si.,Apt.,M.Farm.","aktif","dosen","12345";
"0310108702","KRISNA SATRIO PERBOWO","aktif","dosen","12345";
"0305125701","KUN FAYAKUN S.T, M.T","aktif","dosen","12345";
"9000000008","Kurnia Heriansyah SE, M.Ak.","aktif","dosen","12345";
"0302126802","Drs KUSMAJID M.Pd","aktif","dosen","12345";
"0312058702","LAELY ARMIYATI S.Pd, M.Pd","aktif","dosen","12345";
"0308028701","LAILA JUWITA","aktif","dosen","12345";
"0301056707","LANNY POLINA S.H., M.Pd","aktif","dosen","12345";
"0326085102","LASWETY BAKAR","aktif","dosen","12345";
"0313026403","Dra LELLY QODARIAH M.Pd","aktif","dosen","12345";
"0316038703","LENI MARLENA","aktif","dosen","12345";
"0309097502","LENI SRI RAHAYU SKM., M.P.H.","aktif","dosen","12345";
"0303046905","LILA PRATIWI M.Si","aktif","dosen","12345";
"0312127302","LINA ELFITA","aktif","dosen","12345";
"0323038903","LINTANG PURWARA DEWANTI","aktif","dosen","12345";
"2006057501","LISFA SENTOSA AISYAH","aktif","dosen","12345";
"0328078901","LISMAWATI","aktif","dosen","12345";
"1010128601","LISZULFAH ROZA S.Si, M.Si","aktif","dosen","12345";
"0321028801","LUSI PUTRI DWITA","aktif","dosen","12345";
"0329088801","LUTHPI SAFAHI S.Pd, M.Pd","aktif","dosen","12345";
"0309128602","MAHARADINGGA","aktif","dosen","12345";
"9903012210","MAHYAN YUSMAR","aktif","dosen","12345";
"0304058802","MAIFITRIANTI","aktif","dosen","12345";
"0305095302","MARFA EDISON","aktif","dosen","12345";
"9903010553","MARGIONO","aktif","dosen","12345";
"0314116802","Drs. MARTAFERRY M.M., M.Epid.","aktif","dosen","12345";
"0303036902","MARTRIWATI S.Pd , M.Pd","aktif","dosen","12345";
"0022126501","MARYANTI SETYANINGSIH M.Si","aktif","dosen","12345";
"0010095401","Dra. MASNIDAR TANJUNG M.Pd.","aktif","dosen","12345";
"0312116901","MAYARNI S.Pd., M.Si.","aktif","dosen","12345";
"0320098903","MEGA ELVIANASTI","aktif","dosen","12345";
"0321056605","Dra. MEITIYANI M.Si.","aktif","dosen","12345";
"0317058602","MEYTA DWI KURNIASIH","aktif","dosen","12345";
"0312028704","MIA KAMAYANI SULAEMAN ST., MT.","aktif","dosen","12345";
"0330116803","MIMIN MINAWATI SE, M.Pd","aktif","dosen","12345";
"0313096903","MIRA SOFYANINGSIH S.TP., M.Si.","aktif","dosen","12345";
"0423068204","MIRZANUR HIDAYAT","aktif","dosen","12345";
"0328044804","MIRZA ZOEBIR","aktif","dosen","12345";
"0303025201","MISBAH","aktif","dosen","12345";
"0326078703","MITRA FANY MAHESA","aktif","dosen","12345";
"0311115302","Dr. MOCHAMMAD UZAIR ACHMADI M.M.","aktif","dosen","12345";
"0308016901","MOHAMAD ZAELANI","aktif","dosen","12345";
"0311087605","MOHAMMAD BALYA ALI SYA BAN","aktif","dosen","12345";
"0315097906","MOHAMMAD FURQAN","aktif","dosen","12345";
"0307105903","MOHAMMAD HIRSAHDY TATJE","aktif","dosen","12345";
"0312126705","MOHAMMAD MUJIRUDIN S.T., M.T.","aktif","dosen","12345";
"0429066503","Dr. MOHAMMAD SURYADI SYARIF SE., MM.","aktif","dosen","12345";
"0330016001","Drs. MOHAMMAD YUSUF D MM.","aktif","dosen","12345";
"0322037701","MOH. SUPENDI S.E., M.Pd","aktif","dosen","12345";
"0317108701","MOUHAMAD BIGWANTO S.KM, Ph.D","aktif","dosen","12345";
"0305128402","MUBARAK AHMAD","aktif","dosen","12345";
"0307128301","MUCHAMMAD SHOLEH M.Kom, A.Md","aktif","dosen","12345";
"0420105401","Dr. Ir. H. MUCHDIE MS.","aktif","dosen","12345";
"9903013017","MUCHWAN CHARIRY","aktif","dosen","12345";
"0018105203","MUGIARSIH CHAERI","aktif","dosen","12345";
"0305098305","MUHAMMAD ABDUL HALIM SANI S.Sos, M.Kes","aktif","dosen","12345";
"0317097804","MUHAMMAD ALI IMRAN","aktif","dosen","12345";
"0329067907","MUHAMMAD DWIFAJRI S.Sos.I, M.Pd.I","aktif","dosen","12345";
"0320056901","MUHAMMAD FANSHURULLAH ASA","aktif","dosen","12345";
"0311115502","MUHAMMAD MA`RIFAT IMAN M.Ag","aktif","dosen","12345";
"9903013242","MUHAMMAD NOOR ABUBAKAR","aktif","dosen","12345";
"9903014458","MUHAMMAD NUH NASUTION","aktif","dosen","12345";
"0331126502","MUHAMMAD NURRASYIDIN SE., M.Si.","aktif","dosen","12345";
"9903003670","MUHAMMAD SATARI SUANDANA","aktif","dosen","12345";
"0315088702","MUHIB ROSYIDI M.Hum","aktif","dosen","12345";
"0429117803","MULYANING WULAN M.Ak.","aktif","dosen","12345";
"0314013701","MULYANTO SUMARDI","aktif","dosen","12345";
"0020095003","Ir. MUMUNG MARTHASASMITA M.M.","aktif","dosen","12345";
"0308048701","MUSHODDIK M.Pd","aktif","dosen","12345";
"9903008452","MUSLIM TUMANGGOR","aktif","dosen","12345";
"0329038601","MUSRIANA RETNANINGSIH","aktif","dosen","12345";
"0028013601","MUZAYANAH SUTIKNO","aktif","dosen","12345";
"0327074401","NANIEK SETIADI RADJAB","aktif","dosen","12345";
"0029116401","Dr. NANI SOLIHATI M.Pd.","aktif","dosen","12345";
"0317066302","NANNY HARMANI","aktif","dosen","12345";
"0304076205","NAWAWI","aktif","dosen","12345";
"0014085701","Dra NELSUSMENA M.Pd","aktif","dosen","12345";
"0313016301","Dr. NINI IBRAHIM M.Pd.","aktif","dosen","12345";
"0309078901","NI PUTU ERMI HIKMAWANTI","aktif","dosen","12345";
"0325028003","NITA KANIADEWI","aktif","dosen","12345";
"9903003673","NOERLELI SOEMARJOTO","aktif","dosen","12345";
"0301018802","NORA WULANDARI","aktif","dosen","12345";
"0308127705","NOVANITA WHINDI ARINI","aktif","dosen","12345";
"0317116502","Dra. Hj. NOVI ANDAYANI PRAPTININGSIH M.Si","aktif","dosen","12345";
"0330118701","NOVIANI DEWI ASSIFA","aktif","dosen","12345";
"0425108101","NUMLIL KHAIRA RUSDI","aktif","dosen","12345";
"0320088901","NURAFNI M.Pd","aktif","dosen","12345";
"0313048503","NURAINI M.Pd","aktif","dosen","12345";
"0311028402","NUR AINI PUSPITASARI M.Pd","aktif","dosen","12345";
"0021076506","Dra. NUR AMALIA M.Pd.","aktif","dosen","12345";
"0313077403","NUR ASIAH","aktif","dosen","12345";
"9000000007","Drs. NUR BUSYRA M.M.","aktif","dosen","12345";
"9903021607","NUR HADIYAZID RACHMAN","aktif","dosen","12345";
"0319067802","NUR HADIYAZID RACHMAN","aktif","dosen","12345";
"0320067403","NURHANDAYANI SUPRAPTININGSIH","aktif","dosen","12345";
"9903005404","NURHASAN RAIS","aktif","dosen","12345";
"0026027101","NURLINA RAHMAN S.Pd., M.Si.","aktif","dosen","12345";
"0421127204","NURROHMATUL AMALIYAH M.Pd","aktif","dosen","12345";
"0311039001","NUR SETIAWATI RAHAYU M.KM","aktif","dosen","12345";
"0320057104","NURUL HURIAH ASTUTI M.KM","aktif","dosen","12345";
"2028117301","NURUL ICHSAN MA","aktif","dosen","12345";
"0015035801","Dra NUR WAHYUNI M.Si","aktif","dosen","12345";
"0327056501","NURYADI SE., MM.","aktif","dosen","12345";
"9903009923","OKA GUNAWAN","aktif","dosen","12345";
"0304108802","OKTARINA DWI HANDAYANI M.Pd","aktif","dosen","12345";
"0305067702","OKTARINA HERIYANI M.T","aktif","dosen","12345";
"9903017402","OMO BODY SUATMA WIRANATADJAJA","aktif","dosen","12345";
"0307067202","ONNY FITRIANA S.Pd, M.Pd","aktif","dosen","12345";
"0306076901","ONNY INDRIANI S.Si","aktif","dosen","12345";
"0313046604","ONO RUHIANA M.Pd.","aktif","dosen","12345";
"0330107403","ONY LINDA M.Kes","aktif","dosen","12345";
"0315046802","PANCATATVA HESTI GUNAWAN ST., MT.","aktif","dosen","12345";
"0021016101","PAULINA PANNEN","aktif","dosen","12345";
"9903003909","PERISTIWANTO ADIYONO KODRAT P","aktif","dosen","12345";
"0301118401","PRAMULANI MULYA LESTARI S.Si., Apt., M.Farm.","aktif","dosen","12345";
"0007086601","Dr. PRIMA GUSTI YANTI M.Hum.","aktif","dosen","12345";
"0312076301","PRIYANTO Apt","aktif","dosen","12345";
"9903002452","PRIYO WAHYUDI","aktif","dosen","12345";
"0006104801","Drs PUDJO SUMEDI A S","aktif","dosen","12345";
"0303108501","PURI PRAMUDIANI","aktif","dosen","12345";
"0307017404","PURNAMA SYAEPUROHMAN M.Pd, Ph.D","aktif","dosen","12345";
"0017095701","PURNOMO SASMITO","aktif","dosen","12345";
"0326018001","PUTI ARCHIANTI WIDIASIH S.Psi., M.Psi.","aktif","dosen","12345";
"0317115202","Prof. Dr. QOMARI ANWAR MA.","aktif","dosen","12345";
"0322046301","Drs. RADEN TRI CAHYONO NUR HARSONO M.Si.","aktif","dosen","12345";
"0310128403","RAHMAH ELFIYANI S.Si., Apt., M.Farm.","aktif","dosen","12345";
"0318048002","RAHMAT DAHLAN","aktif","dosen","12345";
"9907001912","RAHMAWATI YULIANI","aktif","dosen","12345";
"0315076302","Dra RAHMIATI","aktif","dosen","12345";
"0007015703","Dra RAHMIWATI MARSINUN M.Psi","aktif","dosen","12345";
"0314036501","RAMBUN SUMARDI SE M.SI","aktif","dosen","12345";
"9903003466","RAMLI SAIRIN","aktif","dosen","12345";
"9903022026","RANI CHAERANI","aktif","dosen","12345";
"0208118003","RATIH NOVITA SARI S.Pd, M.Pd","aktif","dosen","12345";
"0317039002","RATIH PUSPITA DEWI M.Pd","aktif","dosen","12345";
"0026015201","Dra RATNAWATI SOETOMO MM","aktif","dosen","12345";
"0329035701","Dra RESTOENINGROEM M.Pd","aktif","dosen","12345";
"0319037401","RETNO MARDHIATI ADIWIRYONO SKM., M.Kes.","aktif","dosen","12345";
"0321086803","RETNO UTARI M.Pd","aktif","dosen","12345";
"0001104701","Dra. REZKINI ALWIN R BATUBARA M.Pd.","aktif","dosen","12345";
"0328078701","RIDHA ELVINA M.Farm","aktif","dosen","12345";
"0305046501","RIFKY ST., MM.","aktif","dosen","12345";
"0324047702","RIFMA GHULAM DZALJAD M.Si","aktif","dosen","12345";
"0311108801","RINA ARIYANI","aktif","dosen","12345";
"0313105902","Dra. RINA SUKMARA M.Pd.","aktif","dosen","12345";
"0329118402","RINDITA S.Si, M.Si","aktif","dosen","12345";
"0628097801","RINI PRASTIWI","aktif","dosen","12345";
"0330128501","RISQI RAHMAN M.Pd.","aktif","dosen","12345";
"9903000946","RITMAN KOMARA","aktif","dosen","12345";
"0325087503","RITO S.E., M.Si","aktif","dosen","12345";
"0309018604","RIZKIA SUCIATI M.Pd","aktif","dosen","12345";
"0319051501","RIZKI EDMI EDISON Ph.D","aktif","dosen","12345";
"0305018603","RIZKY ARCINTHYA RACHMANIA M.Si","aktif","dosen","12345";
"0303067202","DR. R LINA SINAULAN SE. MM. MH","aktif","dosen","12345";
"0304017001","ROSALINA M.T","aktif","dosen","12345";
"0329048403","ROSI FEIRINA RITONGA","aktif","dosen","12345";
"0006076401","Dra. ROSLAINI M.Hum.","aktif","dosen","12345";
"9903002590","ROZAMON ANWAR","aktif","dosen","12345";
"0024055203","Dra RR SRI SETYANI M.Hum","aktif","dosen","12345";
"0025096706","RR SULISTYAWATI M.Hum, M.Pd","aktif","dosen","12345";
"0010073501","Prof.Dr. R SANTOSA MURWANI","aktif","dosen","12345";
"0006076801","Dr. RUDY GUNAWAN","aktif","dosen","12345";
"0322126204","RUDY QAHARUDDIN","aktif","dosen","12345";
"0019054202","Dra. SABARIJAH WITTO ENG","aktif","dosen","12345";
"0023053701","SABARTI AKHADIAH","aktif","dosen","12345";
"0325066502","SAFRUL M.Pd.","aktif","dosen","12345";
"0326097402","SAID ROMADLAN S.Sos., M.Si.","aktif","dosen","12345";
"9903018992","SAMSUL B SIREGAR","aktif","dosen","12345";
"0307088501","SAMSUL MAARIF M.Pd.","aktif","dosen","12345";
"0311025301","Dr. SANTI CHAIRANI DJONHAR MA.","aktif","dosen","12345";
"0307077107","SARAH HANDAYANI","aktif","dosen","12345";
"0318014601","Drs. SEDIARSO APt., M.Farm.","aktif","dosen","12345";
"0027045702","Drs SESSU M.Si","aktif","dosen","12345";
"0313017603","SIGID EDY PURWANTO M.Pd","aktif","dosen","12345";
"0015115302","Drs. SIGIT SUMARSONO M.Pd.","aktif","dosen","12345";
"0302128002","SILIH WARNI","aktif","dosen","12345";
"0309128004","SILVIE MIL M.Pd","aktif","dosen","12345";
"2108096901","SINTHA WAHJUSAPUTRI M.M.","aktif","dosen","12345";
"0325107703","SISKA S.Si, M.Farm, Apt","aktif","dosen","12345";
"0419058303","SISKA CHANDRAWATY","aktif","dosen","12345";
"0326016801","SISWANA S.Pd., M.Pd","aktif","dosen","12345";
"0305127203","SISWANDI MM.","aktif","dosen","12345";
"9903001264","SITA RATNANINGSIH","aktif","dosen","12345";
"0320074502","Dr. SITI AMINAH MA.","aktif","dosen","12345";
"0310027502","SITI CHAIRUNISSA FAISAL","aktif","dosen","12345";
"0305107402","SITI ZULAIHA Ph.D","aktif","dosen","12345";
"0001036301","Drs SLAMET M.Pd","aktif","dosen","12345";
"0305124802","SLAMET MUHAJIR NAIM","aktif","dosen","12345";
"0311064402","SOETIJASNINGSIH","aktif","dosen","12345";
"0302127002","Dr. SRI ASTUTI M.Pd.","aktif","dosen","12345";
"0321025602","Dra SRI GIYANTI MM","aktif","dosen","12345";
"0323095201","SRI HARSODJO WIJONO SOEWANDI","aktif","dosen","12345";
"9900000355","SRI HARTI MURASA","aktif","dosen","12345";
"0331127405","SRI KUSUMA NINGSIH M.Pd","aktif","dosen","12345";
"0320028901","SRI LESTARI HANDAYANI","aktif","dosen","12345";
"0010035402","SRI MAWANI","aktif","dosen","12345";
"9903020985","SRI MURIANA SACHRO WAHJANTO","aktif","dosen","12345";
"0327065701","Dr. SRI MUSTIKA M.Si.","aktif","dosen","12345";
"0306116401","Dra. SRI NEVI GANTINI M.Si.","aktif","dosen","12345";
"0320028403","SRI RAHAYU","aktif","dosen","12345";
"0303107201","SRI WULANDARI DIAN RAHAYU S.Sos, M.Pd","aktif","dosen","12345";
"0002076001","Dr. SRI YULIAWATI M.Pd.","aktif","dosen","12345";
"0310066005","SUBAKI SE., Ak., MM.","aktif","dosen","12345";
"0326125701","SUBALI","aktif","dosen","12345";
"0302107801","SUBHAN EL HAFIZ S.Psi","aktif","dosen","12345";
"0331036603","Ir SUCIANA WIJIRAHAYU M.Pd.","aktif","dosen","12345";
"0323056403","SUGEMA ST., M.KOM.","aktif","dosen","12345";
"0326036001","Drs. SUGENG RIADI M.Pd.","aktif","dosen","12345";
"0315058505","SUGIANTO M.Si","aktif","dosen","12345";
"0311055603","Dr. SUKARDI M.Pd.","aktif","dosen","12345";
"0324115904","Dra. SULHAH SAIDAH M.Pd","aktif","dosen","12345";
"0318018401","SUMARDI SE, M.Si","aktif","dosen","12345";
"0030114701","SUMARDI","aktif","dosen","12345";
"0331055304","SUMARNI SE., MM.","aktif","dosen","12345";
"0320106005","SUMARSO","aktif","dosen","12345";
"9903009369","SUNARDI KARTOWISASTRO","aktif","dosen","12345";
"9903008991","SUNARNO","aktif","dosen","12345";
"0322116301","Dr. SUNARTA S.E., M.M.","aktif","dosen","12345";
"0319067801","SUPANDI S.Si., Apt., M.Si.","aktif","dosen","12345";
"0005024102","SUPARMAN WITARYA HARYANA","aktif","dosen","12345";
"0311028701","SUPIAT M.Pd","aktif","dosen","12345";
"0303088302","SUPRIANSYAH M.Pd","aktif","dosen","12345";
"9903017288","SUROTO","aktif","dosen","12345";
"0026086006","Dra. SUSANTI MURWITANINGSIH M.Pd.","aktif","dosen","12345";
"0326028502","SUSILO S.Pd., M.Si.","aktif","dosen","12345";
"0308085302","Drs. SUSILO WARDOYO M.Pd","aktif","dosen","12345";
"0020116601","Dra SUSWANDARI M.Pd","aktif","dosen","12345";
"0321094503","SUTEDJO","aktif","dosen","12345";
"0301064802","SUTOMO","aktif","dosen","12345";
"0521075201","SUTOTO","aktif","dosen","12345";
"0325075601","Drs SUYADI M.M.","aktif","dosen","12345";
"0315076304","Prof. Dr. SUYATNO M.Pd.","aktif","dosen","12345";
"9903021739","SYAADIAH ARIFIN","aktif","dosen","12345";
"0419037902","Dr. SYAIFUL ROHIM M.Si","aktif","dosen","12345";
"0302088802","SYARIF HIDAYATULLAH","aktif","dosen","12345";
"0023125206","Dr SYUAIBAN MUHAMMAD","aktif","dosen","12345";
"0309067102","TAHRONI","aktif","dosen","12345";
"9903011094","TAUFANI ZULKIFLI","aktif","dosen","12345";
"0329096403","Dra. TELLYS CORLIANA M.Hum.","aktif","dosen","12345";
"0022095501","Dr. TITIK HARYATI M.Pd.","aktif","dosen","12345";
"0307037801","TOHIRIN S.Sy","aktif","dosen","12345";
"0323077003","TOTONG HERI","aktif","dosen","12345";
"0313097506","S.Pd. TRI ISTI HARTINI S.Pd., M.Pd.","aktif","dosen","12345";
"0305088102","TRIMAWARTINAH","aktif","dosen","12345";
"0304028601","TRI SETYANINGSIH","aktif","dosen","12345";
"0319098901","TRISNA ROY PRADIPTA M.Mat","aktif","dosen","12345";
"0317088403","TRISNI HANDAYANI M.Pd","aktif","dosen","12345";
"0318027501","TRI WINTOLO APOKO S.Pd, M.Pd","aktif","dosen","12345";
"0315127004","TUPI SETYOWATI S.E., M.M.","aktif","dosen","12345";
"9903021608","TUPI SETYOWATI","aktif","dosen","12345";
"0626048601","TUTI WIYATI","aktif","dosen","12345";
"0327058501","ULFA DANNI ROSADA M.Pd","aktif","dosen","12345";
"0031125980","Dra UMMUL QURA M.Pd","aktif","dosen","12345";
"0306078402","UMMU SALMA AL AZIZAH M.Si","aktif","dosen","12345";
"1013127301","VERA LADESKA S.Si, M.Farm","aktif","dosen","12345";
"0308037905","WAHIDIN M.Pd.","aktif","dosen","12345";
"0308108202","WAHYU HIDAYATI M.Biomed.","aktif","dosen","12345";
"0302065601","WALIJA","aktif","dosen","12345";
"9903018101","WALIYUL AMRI","aktif","dosen","12345";
"0007085401","Prof. Dr. WARYO HENDRA SAPUTRA M.Hum","aktif","dosen","12345";
"0306066903","WIBOWO","aktif","dosen","12345";
"0312058202","WIDIA RATNASARI","aktif","dosen","12345";
"0328116205","dr WINARESMI M.K.K","aktif","dosen","12345";
"0304086301","Drs WINARNO","aktif","dosen","12345";
"0014106406","Dra WINI TARMINI M.Hum","aktif","dosen","12345";
"0311058702","WIRATAMASARI SARWINDA","aktif","dosen","12345";
"0305057402","Dr YADI NURHAYADI","aktif","dosen","12345";
"0323106701","YAMIN S.Pd., M.Pd.","aktif","dosen","12345";
"9903013194","YARLIS LUTHAN","aktif","dosen","12345";
"9903022027","YATI ROHENDRAYATI","aktif","dosen","12345";
"0330017601","Dr YESSY YANITA SARI","aktif","dosen","12345";
"0017054303","Prof. Dr. YOCE ALIAH DARMA M.Pd.","aktif","dosen","12345";
"0028125501","Drs. YOHANES SOENARTO M.Si.","aktif","dosen","12345";
"0327098501","YOPPY WAHYU PURNOMO M.Pd.","aktif","dosen","12345";
"0316078401","YUDHISTIRA MAESAROH","aktif","dosen","12345";
"0304058405","YUDI SRIFIANA","aktif","dosen","12345";
"0331076002","Dra YULIA RAHMADAR M.Pd","aktif","dosen","12345";
"0319078602","YULISTIN TRESNAWATY M.Si","aktif","dosen","12345";
"0018076006","Dra. YULMAIDA AMIR M.A.","aktif","dosen","12345";
"0309048404","YUNDA KURNIAWAN M.Pd.","aktif","dosen","12345";
"0329118501","YUNI ASTUTI M.Pd","aktif","dosen","12345";
"0312065501","YUSDI DAULAY SE., MM.","aktif","dosen","12345";
"0021124901","YUSNAWATI","aktif","dosen","12345";
"0003085601","Dr. YUSNIDAR YUSUF M.Si","aktif","dosen","12345";
"0306018803","ZAHMILIA AKBAR M.Sc","aktif","dosen","12345";
"9903000213","ZAIBI ICHSAN","aktif","dosen","12345";
"0426067902","ZAINUL ISLAM M.Farm","aktif","dosen","12345";
"0317076603","Drs. ZAMAH SARI M.Ag.","aktif","dosen","12345";
"0026116501","Drs ZUHAD AHMAD MPd","aktif","dosen","12345";
"0015124504","dr. ZULAZMI MAMDY M.P.H.","aktif","dosen","12345";
"0326036703","Dra ZULFADEWINA M.Pd","aktif","dosen","12345";
"0329078602","ZULHERMAN S.Pd, M.Pd","aktif","dosen","12345";
"0308097403","ZULPAHMI SE., M.Si.","aktif","dosen","12345";